^E:\GAMES\PKO-2.4-SRC\SRC\CALUA\CALUA\CALUA_AVLTREE.C
/c /I..\INCLUDE /Zi /nologo /W3 /WX- /diagnostics:classic /O2 /Ob1 /Oi /Ot /Oy- /GT /D WIN32 /D NDEBUG /D _WINDOWS /D _USRDLL /D CALUA_EXPORTS /D _VC80_UPGRADE=0x0710 /D _WINDLL /D _MBCS /GF /Gm- /EHsc /MT /GS /Gy /fp:precise /Zc:wchar_t /Zc:forScope /Zc:inline /Fo".\RELEASE/" /Fd".\RELEASE/VC141.PDB" /Gd /TC /analyze- E:\GAMES\PKO-2.4-SRC\SRC\CALUA\CALUA\CALUA_AVLTREE.C
^E:\GAMES\PKO-2.4-SRC\SRC\CALUA\CALUA\CALUA_HASH.C
/c /I..\INCLUDE /Zi /nologo /W3 /WX- /diagnostics:classic /O2 /Ob1 /Oi /Ot /Oy- /GT /D WIN32 /D NDEBUG /D _WINDOWS /D _USRDLL /D CALUA_EXPORTS /D _VC80_UPGRADE=0x0710 /D _WINDLL /D _MBCS /GF /Gm- /EHsc /MT /GS /Gy /fp:precise /Zc:wchar_t /Zc:forScope /Zc:inline /Fo".\RELEASE/" /Fd".\RELEASE/VC141.PDB" /Gd /TC /analyze- E:\GAMES\PKO-2.4-SRC\SRC\CALUA\CALUA\CALUA_HASH.C
^E:\GAMES\PKO-2.4-SRC\SRC\CALUA\CALUA\CALUA_HELPER.C
/c /I..\INCLUDE /Zi /nologo /W3 /WX- /diagnostics:classic /O2 /Ob1 /Oi /Ot /Oy- /GT /D WIN32 /D NDEBUG /D _WINDOWS /D _USRDLL /D CALUA_EXPORTS /D _VC80_UPGRADE=0x0710 /D _WINDLL /D _MBCS /GF /Gm- /EHsc /MT /GS /Gy /fp:precise /Zc:wchar_t /Zc:forScope /Zc:inline /Fo".\RELEASE/" /Fd".\RELEASE/VC141.PDB" /Gd /TC /analyze- E:\GAMES\PKO-2.4-SRC\SRC\CALUA\CALUA\CALUA_HELPER.C
